{
  "collectionName": "components_tags_tags",
  "info": {
    "name": "Tags",
    "icon": "audio-description"
  },
  "options": {},
  "attributes": {
    "code": {
      "type": "biginteger"
    }
  }
}
