{
  "collectionName": "components_contents_contents",
  "info": {
    "name": "contents",
    "icon": "angle-double-down"
  },
  "options": {},
  "attributes": {
    "content_id": {
      "type": "integer"
    },
    "content_pic": {
      "collection": "file",
      "via": "related",
      "allowedTypes": [
        "images",
        "files",
        "videos"
      ],
      "plugin": "upload",
      "required": false,
      "pluginOptions": {}
    }
  }
}
