{
  "collectionName": "components_promotions_promotions",
  "info": {
    "name": "Promotions",
    "icon": "angle-double-up"
  },
  "options": {},
  "attributes": {
    "promotion_id": {
      "type": "integer"
    },
    "promotion_pic_1": {
      "collection": "file",
      "via": "related",
      "allowedTypes": [
        "images",
        "files",
        "videos"
      ],
      "plugin": "upload",
      "required": false,
      "pluginOptions": {}
    },
    "promotion_pic_2": {
      "collection": "file",
      "via": "related",
      "allowedTypes": [
        "images",
        "files",
        "videos"
      ],
      "plugin": "upload",
      "required": false,
      "pluginOptions": {}
    }
  }
}
