{
  "collectionName": "components_media_media",
  "info": {
    "name": "Media",
    "icon": "ad",
    "description": ""
  },
  "options": {},
  "attributes": {
    "Media": {
      "type": "json"
    }
  }
}
